M48
;Layer_Color=9474304
;FILE_FORMAT=4:4
METRIC,LZ
;TYPE=PLATED
T1F00S00C0.5000
T2F00S00C0.6000
T3F00S00C0.9000
T4F00S00C1.0000
T5F00S00C3.5000
%
T01
X012Y0078
X0123
X0126
X0129
X014Y0078
X0143475Y0079175
X0117Y0078
X0114
X0111
X0108
X0105
X0102
X0099
X0096
X0093
X009
X0087
X0084
X0081
X0078Y0084
X0075
Y0087
Y0099
Y0102
X0078
X0081Y0108
X0084
X0087
X009
X0093
X0096
X0099
X0102
X0105
X0108
X0111
X0114
X0117
X012
X0123
X0126
X0129
X013875Y009875
X0138Y00965
X013585Y0094375
X0135Y0093525
X013475Y009
Y00875
X0137Y0087
X01385Y009
X01422997Y00884998
X01437Y00885
X01449Y0086975
Y00848
X01448071Y00830041
X0146Y0083
X014715Y00852
X014265Y00852
X01427Y0084
X01495Y00821
X0153Y0084
X0156
Y0081
X01557Y00885996
X015Y009
Y0093
X01467Y00972
X0146Y009875
X01425
Y00925
X0132Y009
Y0084
X014925Y01
Y0102
X0155594Y0099
X015925Y00983
Y00937
X01614Y009085
X01656
Y010115
X01614
X0159Y0084
Y0081
T02
X0152025Y00906
X0155775
X0155594Y01002
T03
X01455Y0078
X014804
X015058
X015312
X015566
X01582
X0116Y008238
Y008492
Y008746
Y009
X01095
Y008746
Y008492
Y008238
X0103
Y008492
Y008746
Y009
X00965
Y008746
Y008492
Y008238
X009
Y008492
Y008746
Y009
X00835
Y008746
Y008492
Y008238
X00825Y0097
Y009954
Y010208
Y010462
X0089
Y010208
Y009954
Y0097
X00955
Y009954
Y010208
Y010462
X0102
Y010208
Y009954
Y0097
X01085
Y009954
Y010208
Y010462
X0115
Y010208
Y009954
Y0097
X01215
Y009954
Y010208
Y010462
X0128
Y010208
Y009954
Y0097
X0129Y009
Y008746
Y008492
Y008238
X01225
Y008492
Y008746
Y009
T04
X0141Y0104
Y0106
X0151Y0099
X0153
X01616Y00885
Y00865
Y00845
T05
X0163Y0079
X0135
X0076
Y0108
X0135
X0163Y0107
M30
